<svg width="32" height="32" viewBox="0 0 32 32" fill="none" xmlns="http://www.w3.org/2000/svg">
<path d="M28.8741 12.5503C27.9523 9.11123 25.7474 6.23602 22.6639 4.4554C20.6381 3.28521 18.3381 2.66666 16.0124 2.66666C11.259 2.66666 6.83217 5.22201 4.45852 9.33498C2.678 12.4176 2.20529 16.0106 3.12628 19.4505C4.04763 22.8904 6.2529 25.7648 9.33562 27.5454C11.3619 28.714 13.6619 29.3333 15.9871 29.3333C20.7406 29.3333 25.1681 26.7779 27.5414 22.6658C29.3224 19.5816 29.7943 15.9886 28.8741 12.5503ZM28.2216 14.0314C28.3339 14.7175 28.3868 15.4174 28.3802 16.1115L28.3794 16.2328L24.3432 20.2709L22.4239 19.1625L28.128 13.4577L28.2216 14.0314ZM27.1534 10.6241C27.4023 11.1416 27.6171 11.6804 27.7912 12.2256L27.8465 12.3982L21.5738 18.6726L19.6553 17.5625L26.9711 10.2465L27.1534 10.6241ZM25.3829 7.91816C25.553 8.11592 25.7173 8.31936 25.876 8.52853C26.0403 8.74577 26.1958 8.96796 26.3447 9.195L26.478 9.39844L18.8059 17.0726L16.8858 15.9642L25.1731 7.67482L25.3829 7.91816ZM16.4733 3.6205L16.7902 3.64004C17.2909 3.67177 17.7938 3.73444 18.2852 3.82722L18.8401 3.93141L16.4733 6.29796V3.6205V3.6205ZM16.4733 7.63903L19.875 4.23654L20.0523 4.29755C20.5876 4.48473 21.1157 4.70932 21.6202 4.96652L21.9855 5.15371L16.4733 10.6664V7.63903ZM16.4733 12.0075L22.8186 5.66149L23.0227 5.80231C23.4629 6.10504 23.8835 6.43622 24.2749 6.78782L24.5091 6.99777L16.4733 15.0357V12.0075ZM26.3032 22.8636C25.8304 23.5765 25.2837 24.2398 24.6784 24.8355C23.9096 25.5915 23.0414 26.2458 22.1001 26.7772C20.2386 27.8294 18.1241 28.3844 15.9872 28.3844C14.9254 28.3844 13.8682 28.2477 12.8439 27.9775C11.7878 27.6976 10.7671 27.276 9.81077 26.7242C8.36218 25.8869 7.12186 24.7923 6.12358 23.4707C5.15946 22.1955 4.45935 20.7607 4.04237 19.2055C3.62581 17.6487 3.51477 16.0554 3.71248 14.4684C3.91586 12.8262 4.44269 11.2588 5.27863 9.8086C5.84082 8.83527 6.52832 7.94666 7.3216 7.16537C8.08962 6.40856 8.95686 5.75589 9.89905 5.22367C11.5161 4.30979 13.3523 3.76288 15.2082 3.64165L15.5263 3.62212L15.5271 15.9658C15.5141 16.149 15.6048 16.319 15.763 16.411L26.4788 22.5992L26.3032 22.8636ZM26.954 21.778L25.1926 20.7608L28.316 17.6398L28.1003 18.6303C27.8872 19.6149 27.5488 20.5785 27.0948 21.4932L26.954 21.778Z" fill="currentColor"/>
</svg>
