<svg width="32" height="32" viewBox="0 0 32 32" fill="none" xmlns="http://www.w3.org/2000/svg">
  <path d="M27.5211 25.006H0V19.6865H0.441C1.41947 19.6865 2.21878 18.8871 2.21878 17.9087C2.21878 16.9302 1.41947 16.1309 0.441 16.1309H0V10.8113H27.5211V16.1309H27.0801C26.1017 16.1309 25.3023 16.9302 25.3023 17.9087C25.3023 18.8871 26.1017 19.6865 27.0801 19.6865H27.5211V25.006ZM0.881999 24.124H26.6391V20.5271C25.385 20.3204 24.4203 19.2179 24.4203 17.9087C24.4203 16.5857 25.385 15.497 26.6391 15.2902V11.6933H0.881999V15.2902C2.13609 15.497 3.10078 16.5995 3.10078 17.9087C3.10078 19.2317 2.13609 20.3204 0.881999 20.5271V24.124Z" fill="currentColor"/>
  <path d="M13.7537 22.7873C13.5056 22.7873 13.3127 22.5944 13.3127 22.3463V13.4712C13.3127 13.2231 13.5056 13.0302 13.7537 13.0302C14.0017 13.0302 14.1947 13.2231 14.1947 13.4712V22.3463C14.1947 22.5944 14.0017 22.7873 13.7537 22.7873Z" fill="currentColor"/>
  <path d="M27.2731 22.5943L27.1766 21.7261L31.0353 21.3127L30.6495 17.7433C30.0982 17.7158 29.5745 17.5091 29.1473 17.1507C28.596 16.696 28.2515 16.062 28.1826 15.3592C28.0999 14.6563 28.3066 13.9673 28.7614 13.416C29.1197 12.975 29.5883 12.6718 30.112 12.5202L29.7261 8.95091L3.6658 11.7072L3.56934 10.8389L30.4979 8L31.0629 13.292L30.6219 13.3333C30.1533 13.3885 29.7261 13.6227 29.4229 13.9811C29.1197 14.3531 28.9819 14.8079 29.0371 15.2903C29.0922 15.7726 29.3127 16.1998 29.6848 16.4892C30.0569 16.7924 30.5116 16.9302 30.994 16.8751L31.435 16.8338L32 22.1258L27.2731 22.5943Z" fill="currentColor"/>
</svg>
